<?xml version="1.0" encoding="UTF-8"?>

<thing>
  <thing_id version_stamp="5f0d076d-e1df-46d6-a3e7-c6f7416a96d9">68852d67-51cf-4c2b-9540-37f1863ef067</thing_id>
  <type_id>52bf9104-2c5e-4f1f-a66d-552ebcc53df7</type_id>
  <thing_state>Active</thing_state>
  <flags>0</flags>
  <data_xml>
    <allergy>
      <name>
        <text>Cashew nuts</text>
      </name>
      <reaction>
        <text>Urticaria</text>
      </reaction>
      <first_observed>
        <structured>
          <date>
            <y>2004</y>
          </date>
        </structured>
      </first_observed>
      <allergen_type>
        <text>food</text>
      </allergen_type>
    </allergy>
  </data_xml>
</thing>